<svg width="100%" height="100%" xmlns="http://www.w3.org/2000/svg" fill="rgb(253, 105, 43)" style="position: absolute; top: 0; left: 0;" viewBox="0 0 621 591">
                    <metadata><?xpacket begin="﻿" id="W5M0MpCehiHzreSzNTczkc9d"?>
                  <x:xmpmeta xmlns:x="adobe:ns:meta/" x:xmptk="Adobe XMP Core 5.6-c138 79.159824, 2016/09/14-01:09:01        ">
                    <rdf:RDF xmlns:rdf="http://www.w3.org/1999/02/22-rdf-syntax-ns#">
                        <rdf:Description rdf:about=""/>
                    </rdf:RDF>
                  </x:xmpmeta>                       
                  <?xpacket end="w"?></metadata>
                  <defs>
                      <style>
                        .cls-1 {
                          font-size: 300px;
                          text-anchor: middle;
                          font-family: Tahoma;
                        }
                      </style>
                    </defs>
                    <text id="أسمك_" data-name="أسمك " class="cls-1" transform="translate(305.474 295.015) scale(0.296 0.427)"><tspan x="0">أسمك </tspan></text>
                    <text id="هنا" class="cls-1" transform="translate(305.474 423.254) scale(0.296 0.427)"><tspan x="0">هنا</tspan></text>
                  </svg>