<svg id="hand" xmlns="http://www.w3.org/2000/svg" width="191" height="177.52" viewBox="0 0 191 177.52">
  <path id="Path_2424" data-name="Path 2424" d="M219.662,305.665a3.733,3.733,0,1,0-5.278,0A3.737,3.737,0,0,0,219.662,305.665Zm0,0" transform="translate(-133.724 -187.644)" fill="#fff"/>
  <path id="Path_2425" data-name="Path 2425" d="M227.738,68.465v7.461a22.384,22.384,0,0,0,44.767,0V68.465a3.73,3.73,0,0,0,0-7.461h-7.461a3.73,3.73,0,0,0,0,7.461v7.461a14.923,14.923,0,0,1-29.845,0V68.465a3.73,3.73,0,0,0,0-7.461h-7.461a3.73,3.73,0,0,0,0,7.461Zm0,0" transform="translate(-140.442 -38.247)" fill="#fff"/>
  <path id="Path_2426" data-name="Path 2426" d="M43.355,176.429a3.733,3.733,0,0,0,5.274,0l11.455-11.455a17.27,17.27,0,0,0,5.01-14l4.108-3.967a17.308,17.308,0,0,1,12.066-4.873h49.117A33.385,33.385,0,0,0,153.8,132.62a3.5,3.5,0,0,0,.264-.286L187.484,92.2a14.923,14.923,0,0,0-22.712-19.363l-3.61,3.733V3.73A3.731,3.731,0,0,0,157.432,0H61.554a3.731,3.731,0,0,0-3.73,3.73V87.312a44.874,44.874,0,0,0-32.076,25.109,17.227,17.227,0,0,0-13.135,5.064L1.1,128.942a3.731,3.731,0,0,0,0,5.284ZM153.7,7.461V84.287L142.9,95.449a14.989,14.989,0,0,0-11.588-5.542H88.064a2.06,2.06,0,0,1-.759-.16,48.208,48.208,0,0,0-18.288-3.57c-1.249,0-2.493.045-3.73.127V7.461ZM62.089,94.129A42.388,42.388,0,0,1,84.5,96.661a9.491,9.491,0,0,0,3.561.708h43.253a7.461,7.461,0,0,1,0,14.922H98.86a3.73,3.73,0,0,0,0,7.461h32.457a14.939,14.939,0,0,0,14.922-14.922,15.089,15.089,0,0,0-.133-1.958c.778-.8,23.327-24.118,24.108-24.927.057-.06.114-.121.166-.184a7.462,7.462,0,1,1,11.387,9.647l-33.308,40a25.959,25.959,0,0,1-18.075,7.269H81.267a24.728,24.728,0,0,0-17.246,6.964l-1.645,1.588a17.367,17.367,0,0,0-2.291-2.823L37.172,117.491a17.42,17.42,0,0,0-4.115-3.044C38.756,103.206,48.936,96.041,62.089,94.129ZM17.883,122.766a9.892,9.892,0,0,1,14.013,0l22.916,22.915a9.9,9.9,0,0,1,0,14.013l-8.822,8.821L9.014,131.591Zm0,0" transform="translate(0)" fill="#fff"/>
</svg>
