<svg xmlns="http://www.w3.org/2000/svg" width="576.211" height="43" viewBox="0 0 576.211 43">
  <g id="Group_918" data-name="Group 918" transform="translate(17530.5 16800)">
    <path id="Subtraction_32" data-name="Subtraction 32" d="M21.5,43A21.5,21.5,0,0,1,6.3,6.3,21.5,21.5,0,0,1,36.7,36.7,21.364,21.364,0,0,1,21.5,43Zm0-31A9.5,9.5,0,1,0,31,21.5,9.511,9.511,0,0,0,21.5,12Z" transform="translate(-16954.289 -16757) rotate(180)" fill="#b9b9b9"/>
    <path id="Subtraction_33" data-name="Subtraction 33" d="M21.5,43A21.5,21.5,0,0,1,6.3,6.3,21.5,21.5,0,0,1,36.7,36.7,21.364,21.364,0,0,1,21.5,43Zm0-31A9.5,9.5,0,1,0,31,21.5,9.511,9.511,0,0,0,21.5,12Z" transform="translate(-17126.02 -16757) rotate(180)" fill="#b9b9b9"/>
    <line id="Line_44" data-name="Line 44" x2="144" transform="translate(-17133.5 -16778.5)" fill="none" stroke="#b9b9b9" stroke-width="12"/>
    <line id="Line_45" data-name="Line 45" x2="139" transform="translate(-17302.5 -16778.5)" fill="none" stroke="#b9b9b9" stroke-width="12"/>
    <line id="Line_46" data-name="Line 46" x2="159.5" transform="translate(-17494 -16778.5)" fill="none" stroke="#b9b9b9" stroke-width="12"/>
    <path id="Subtraction_34" data-name="Subtraction 34" d="M21.5,43A21.5,21.5,0,0,1,6.3,6.3,21.5,21.5,0,0,1,36.7,36.7,21.364,21.364,0,0,1,21.5,43Zm0-31A9.5,9.5,0,1,0,31,21.5,9.511,9.511,0,0,0,21.5,12Z" transform="translate(-17297.473 -16757) rotate(180)" fill="#b9b9b9"/>
    <path id="Subtraction_35" data-name="Subtraction 35" d="M21.5,43A21.5,21.5,0,0,1,6.3,6.3,21.5,21.5,0,0,1,36.7,36.7,21.364,21.364,0,0,1,21.5,43Zm0-31A9.5,9.5,0,1,0,31,21.5,9.511,9.511,0,0,0,21.5,12Z" transform="translate(-17487.5 -16757) rotate(180)" fill="#b28c67"/>
  </g>
</svg>
